22.9976713446 -20.2183356936
23.7728230963 -20.1659751132
24.5651746869 -20.2851873395
25.3749655559 -20.526819028
26.2023337257 -20.8502281818
27.0475208522 -21.1782044973
27.9106627173 -21.4320697119
28.7920032414 -21.6202972507
29.6916759181 -21.7493626214
30.60992698 -21.8234584077
31.5468875844 -21.8472157125
32.5027757702 -21.8246477347
33.4778119726 -21.7589519078
34.4721237545 -21.6528755016
35.4859633391 -21.5092020239
36.5194558333 -21.3311929048
37.5728559402 -21.1228275162
38.6462862628 -20.8890495239
39.7400040322 -20.6358843026
40.8541292995 -20.3705153394
41.9889218716 -20.1007485225
